     0,      1,      2,      3,      4,      5,      6,      7,      8,      9,     10,     11,     12,     13,     14,     15, 
     0,     -1,     -1,     -1,     -1,     -1,     -1,     -1,     -1,     -1,     -1,     -1,     -1,     -1,     17,     -1, 
     9,     -1,     -1,     -1,      6,     -1,     -1,     -1,     13,     -1,     -1,     -1,     12,     -1,     -1,     -1, 
     1,     -1,     14,     -1,     -1,     -1,     -1,     -1,      8,     -1,     18,     -1,     -1,     -1,     -1,     -1, 
     5,     -1,     17,     -1,      4,     -1,     14,     -1,     -1,     -1,     -1,     -1,     -1,     -1,     -1,     -1
